<svg xmlns="http://www.w3.org/2000/svg" xmlns:xlink="http://www.w3.org/1999/xlink" width="231" height="28" viewBox="0 0 231 28">
    <defs>
        <path id="a" d="M.271.137h7.77v9.488H.271z"/>
        <path id="c" d="M0 28h231V0H0z"/>
    </defs>
    <g fill="none" fill-rule="evenodd">
        <g transform="translate(123.375 18.375)">
            <mask id="b" fill="#fff">
                <use xlink:href="#a"/>
            </mask>
            <path fill="#71787D" d="M4.844 2.463v-.026c0-.614-.409-1.032-.99-1.032-.621 0-1.03.456-1.03 1.098v.025c0 .458.174.798.657 1.36.892-.34 1.363-.772 1.363-1.425zm.05 4.98l-1.933-2.08c-.805.367-1.153.93-1.153 1.517v.027c0 .771.607 1.332 1.45 1.332.595 0 1.14-.3 1.636-.797zm.868.94c-.744.732-1.611 1.19-2.665 1.19-1.61 0-2.826-1.033-2.826-2.615v-.025c0-1.176.657-2.026 1.846-2.562-.495-.668-.718-1.243-.718-1.908v-.026c0-1.228.942-2.3 2.491-2.3 1.375 0 2.305.98 2.305 2.207v.028c0 1.202-.756 1.92-1.909 2.379l1.488 1.594c.334-.523.643-1.124.928-1.766l1.153.642c-.347.732-.73 1.45-1.177 2.09l1.363 1.465-1.126.85-1.153-1.242z" mask="url(#b)"/>
        </g>
        <path fill="#71787D" d="M26.25 18.177l4.517-2.427 3.358 7h-4.996c0 .003-.96.003-1.344-.865-.36-.962-1.527-3.707-1.535-3.708"/>
        <mask id="d" fill="#fff">
            <use xlink:href="#c"/>
        </mask>
        <path fill="#71787D" d="M0 28h35v-3.5H0z" mask="url(#d)"/>
        <path fill="#007556" d="M37.625 4.29c-.007-.002-5.59 2.972-6.899 3.424-1.203.44-1.655-.142-1.798-.345-.322-.457-.853-1.965-.928-2.193.032.007.34.063 1.055-.106.85-.199 8.563-4.196 8.57-4.195v3.414z" mask="url(#d)"/>
        <path fill="#71787D" d="M28.899 10.768l-3.58-7.75h-5.208l-7.316 13.333c.006.003 3.6-.107 5.903-1.803.583-.334 2.224-4.546 3.728-7.38l2.34 5.724c-3.537 1.77-6.897 3.32-8.705 3.82-4.773 1.344-10.586 2.15-12.674.343-1.964-1.703 2.57-8.836 11.15-10.422 1.39-.303 2.201-.226 2.201-.217 0-.009-.587-2.438-1.045-2.95-.64-.765-1.266-.923-2.2-.807-1.858.11-9.756 2.166-12.873 8.594-1.737 3.654.574 7.342 2.07 8.411.695.495 5.18 4.425 15.551.453 10.222-3.873 19.377-9.973 19.384-9.973V6.062c-.005-.005-4.04 2.253-8.726 4.706M48.125 18.375h1.985v7.35H56v1.4h-7.875zM56.875 24.6v-6.225h7.705v1.4h-5.883v2.112h5.396v1.362h-5.396v1.35c0 .763.353 1.126 1.07 1.126h4.983v1.4h-5.42c-1.556 0-2.455-.937-2.455-2.525M73.85 23.65l-1.786-3.474-1.785 3.474h3.57zm.712 1.364h-4.996l-1.086 2.111H66.5l4.698-8.75h1.98l4.697 8.75H75.65l-1.088-2.111zM78.75 25.783l.9-1.22c1.172.81 2.767 1.184 4.143 1.184 1.43 0 2.6-.398 2.6-1.027 0-.653-1.3-.907-2.792-1.209-2.06-.41-4.504-.895-4.504-2.587 0-1.571 2.085-2.549 4.466-2.549 1.633 0 3.344.434 4.58 1.22l-.901 1.22c-1.016-.724-2.38-1.087-3.64-1.087-1.289 0-2.523.373-2.523.979 0 .567 1.183.797 2.598 1.063 2.098.399 4.698.894 4.698 2.732 0 1.668-2.137 2.623-4.555 2.623-1.866 0-3.745-.519-5.07-1.342M90.125 27.125h1.75v-8.75h-1.75zM97.355 20.889v6.236h-1.98v-8.75h1.98l5.664 6.224v-6.224H105v8.75h-1.981zM112.59 18.375c1.429 0 2.912.4 4.13 1.197l-.926 1.099c-.993-.628-1.828-.978-3.085-.978-2.185 0-3.893 1.22-3.893 3.033 0 1.788 1.522 3.083 3.827 3.083 1.019 0 1.959-.255 2.62-.654v-1.62h-2.793v-1.292h4.78v3.553c-1.112.725-2.688 1.329-4.687 1.329-3.495 0-5.813-1.886-5.813-4.387 0-2.767 2.833-4.363 5.84-4.363M138.25 18.375h7.875v1.4h-6.012v2.738h5.267v1.362h-5.267v3.25h-1.863zM154.351 23.65l-1.787-3.474-1.785 3.474h3.572zm.712 1.364h-4.996l-1.087 2.111H147l4.698-8.75h1.98l4.697 8.75h-2.226l-1.086-2.111zM163.916 18.375c1.357 0 2.764.4 3.92 1.197l-.88 1.099c-.941-.628-1.733-.978-2.926-.978-2.073 0-3.694 1.244-3.694 3.058 0 1.812 1.62 3.058 3.694 3.058 1.255 0 2.085-.376 3.09-1.028l.88 1.099c-1.18.81-2.664 1.245-4.084 1.245-2.851 0-5.541-1.62-5.541-4.387 0-2.767 2.69-4.363 5.541-4.363M168.875 19.775v-1.4h8.75v1.4h-3.42v7.35h-1.91v-7.35zM180.502 22.75c0 1.704 1.503 3.058 3.685 3.058 2.183 0 3.685-1.354 3.685-3.057 0-1.705-1.502-3.058-3.685-3.058-2.182 0-3.685 1.353-3.685 3.058m-2.002 0c0-2.394 2.361-4.376 5.687-4.376s5.688 1.982 5.688 4.376c0 2.392-2.362 4.374-5.688 4.374-3.326 0-5.687-1.982-5.687-4.374M197.42 22.713c1.416 0 2.327-.55 2.327-1.5 0-.926-.87-1.439-2.342-1.439h-2.9v2.939h2.915zm-4.92-4.338h5.067c2.352 0 4.264.887 4.264 2.812 0 1.501-1.177 2.289-2.767 2.626l3.061 3.312h-2.338l-2.783-3.05h-2.5v3.05H192.5v-8.75zM203.875 27.125h1.75v-8.75h-1.75zM211.105 20.889v6.236h-1.98v-8.75h1.98l5.665 6.224v-6.224h1.98v8.75h-1.98zM226.339 18.375c1.43 0 2.913.4 4.132 1.197l-.928 1.099c-.991-.628-1.827-.978-3.083-.978-2.188 0-3.896 1.22-3.896 3.033 0 1.788 1.523 3.083 3.828 3.083 1.02 0 1.96-.255 2.621-.654v-1.62h-2.793v-1.292H231v3.553c-1.112.725-2.687 1.329-4.687 1.329-3.497 0-5.813-1.886-5.813-4.387 0-2.767 2.833-4.363 5.839-4.363" mask="url(#d)"/>
        <path fill="#007556" d="M54.807 3.5c1.85 0 3.77.559 5.346 1.676l-1.2 1.539c-1.286-.88-2.364-1.37-3.992-1.37-2.828 0-5.037 1.742-5.037 4.281 0 2.537 2.209 4.279 5.037 4.279 1.713 0 2.844-.525 4.215-1.438l1.199 1.54c-1.61 1.133-3.632 1.743-5.568 1.743-3.89 0-7.557-2.268-7.557-6.142 0-3.874 3.667-6.108 7.557-6.108M68.387 9.139c1.803 0 2.96-.715 2.96-1.95 0-1.204-1.106-1.869-2.978-1.869h-3.692v3.819h3.71zM62.125 3.5h6.449C71.568 3.5 74 4.654 74 7.156c0 1.95-1.497 2.973-3.521 3.413l3.895 4.306h-2.977L67.86 10.91h-3.182v3.965h-2.552V3.5zM83.951 0l-1.88 2.033h-2.073L81.424 0h2.527zm-7.826 11.535v-8.23h10.274v1.85h-7.843V7.95h7.194v1.801h-7.194v1.784c0 1.01.469 1.488 1.426 1.488h6.643v1.852h-7.226c-2.075 0-3.274-1.24-3.274-3.34zM95.71 13.055c2.914 0 4.867-1.544 4.867-3.85 0-2.324-1.953-3.885-4.866-3.885h-3.016v7.735h3.016zM90.126 3.5h5.415c4.626 0 7.71 2.275 7.71 5.687 0 3.413-3.084 5.688-7.71 5.688h-5.415V3.5zM105.875 14.875h2.625V3.5h-2.625zM110.25 5.32V3.5h11.375v1.82h-4.448v9.555h-2.48V5.32zM136.488 10.358l-2.336-4.519-2.334 4.519h4.67zm.932 1.77h-6.534l-1.422 2.747h-2.589L133.018 3.5h2.59l6.142 11.375h-2.91l-1.42-2.746zM149.05 3.5c1.786 0 3.64.559 5.164 1.676l-1.16 1.539c-1.241-.88-2.285-1.37-3.855-1.37-2.734 0-4.867 1.708-4.867 4.246 0 2.504 1.902 4.314 4.784 4.314 1.273 0 2.448-.355 3.277-.913v-2.268H148.9V8.915h5.976v4.973c-1.392 1.015-3.36 1.862-5.86 1.862-4.37 0-7.265-2.64-7.265-6.142 0-3.874 3.541-6.108 7.3-6.108M164.636 9.139c1.803 0 2.96-.715 2.96-1.95 0-1.204-1.106-1.869-2.978-1.869h-3.69v3.819h3.708zM158.375 3.5h6.447c2.995 0 5.428 1.154 5.428 3.656 0 1.95-1.498 2.973-3.521 3.413l3.896 4.306h-2.978l-3.539-3.965h-3.18v3.965h-2.553V3.5zM173.25 14.875h2.625V3.5h-2.625zM186.057 3.5c1.85 0 3.77.559 5.347 1.676l-1.201 1.539c-1.286-.88-2.365-1.37-3.993-1.37-2.827 0-5.037 1.742-5.037 4.281 0 2.537 2.21 4.279 5.037 4.279 1.714 0 2.845-.525 4.216-1.438l1.199 1.54c-1.61 1.133-3.632 1.743-5.568 1.743-3.89 0-7.557-2.268-7.557-6.142 0-3.874 3.667-6.108 7.557-6.108M194.244 9.624c0 2.387 1.965 4.282 4.817 4.282 2.855 0 4.82-1.895 4.82-4.282 0-2.385-1.965-4.28-4.82-4.28-2.852 0-4.817 1.895-4.817 4.28m-2.619 0c0-3.348 3.089-6.124 7.436-6.124 4.35 0 7.439 2.776 7.439 6.124 0 3.35-3.089 6.126-7.44 6.126-4.346 0-7.435-2.776-7.435-6.126M209.125 3.5h2.427v9.555h7.198v1.82h-9.625zM220.5 11.592V3.5h10.274v1.82h-7.843v2.747h7.193v1.771h-7.193v1.754c0 .99.47 1.463 1.426 1.463H231v1.82h-7.227c-2.074 0-3.273-1.22-3.273-3.283" mask="url(#d)"/>
    </g>
</svg>
