<?xml version="1.0" encoding="UTF-8"?>
<svg width="16px" height="16px" viewBox="0 0 16 16" version="1.1" xmlns="http://www.w3.org/2000/svg" xmlns:xlink="http://www.w3.org/1999/xlink">
    <!-- Generator: Sketch 50.2 (55047) - http://www.bohemiancoding.com/sketch -->
    <title>Picto radiation</title>
    <desc>Created with Sketch.</desc>
    <defs></defs>
    <g id="004_Accueil_Compte_User_Desktop_1440" stroke="none" stroke-width="1" fill="none" fill-rule="evenodd">
        <g id="004_05_Accueil_Compte_User_Desktop_1440---Historique-recherche-ON" transform="translate(-985.000000, -628.000000)">
            <g id="Historique-des-recherches-ON" transform="translate(100.000000, 345.000000)">
                <g id="Historique" transform="translate(0.000000, 39.000000)">
                    <g id="Ligne-3" transform="translate(2.000000, 219.000000)">
                        <g id="Picto-radiation" transform="translate(883.000000, 25.000000)">
                            <circle id="Oval-3" stroke="#FF001F" stroke-width="3" cx="8" cy="8" r="6.5"></circle>
                            <rect id="Rectangle-3" fill="#FF001F" transform="translate(8.000000, 8.500000) rotate(-315.000000) translate(-8.000000, -8.500000) " x="1" y="7" width="14" height="3"></rect>
                        </g>
                    </g>
                </g>
            </g>
        </g>
    </g>
</svg>