<?xml version="1.0" encoding="UTF-8"?>
<svg width="5px" height="2px" viewBox="0 0 5 2" version="1.1" xmlns="http://www.w3.org/2000/svg" xmlns:xlink="http://www.w3.org/1999/xlink">
    <!-- Generator: Sketch 50.2 (55047) - http://www.bohemiancoding.com/sketch -->
    <title>None</title>
    <desc>Created with Sketch.</desc>
    <defs></defs>
    <g id="004_Accueil_Compte_User_Desktop_1440" stroke="none" stroke-width="1" fill="none" fill-rule="evenodd">
        <g id="004_05_Accueil_Compte_User_Desktop_1440---Historique-recherche-ON" transform="translate(-1085.000000, -569.000000)" fill="#D8D8D8" stroke="#979797">
            <g id="Historique-des-recherches-ON" transform="translate(100.000000, 345.000000)">
                <g id="Historique" transform="translate(0.000000, 39.000000)">
                    <g id="Ligne-2" transform="translate(2.000000, 152.000000)">
                        <rect id="None" x="983.5" y="33.5" width="4" height="1" rx="0.5"></rect>
                    </g>
                </g>
            </g>
        </g>
    </g>
</svg>