<?xml version="1.0" encoding="UTF-8"?>
<svg width="16px" height="12px" viewBox="0 0 16 12" version="1.1" xmlns="http://www.w3.org/2000/svg" xmlns:xlink="http://www.w3.org/1999/xlink">
    <!-- Generator: Sketch 50.2 (55047) - http://www.bohemiancoding.com/sketch -->
    <title>Combined Shape</title>
    <desc>Created with Sketch.</desc>
    <defs></defs>
    <g id="004_Accueil_Compte_User_Desktop_1440" stroke="none" stroke-width="1" fill="none" fill-rule="evenodd">
        <g id="004_05_Accueil_Compte_User_Desktop_1440---Historique-recherche-ON" transform="translate(-985.000000, -482.000000)" fill="#009F61">
            <g id="Historique-des-recherches-ON" transform="translate(100.000000, 345.000000)">
                <g id="Historique" transform="translate(0.000000, 39.000000)">
                    <g id="Ligne-1" transform="translate(2.000000, 53.000000)">
                        <path d="M892.961388,52.1607532 L892.968758,42.5156205 C892.969397,41.6783792 893.648295,41 894.485537,41 C895.321952,41 896,41.6780483 896,42.5144634 C896,42.5148491 896,42.5152348 896,42.5156205 L895.990328,54.173357 L895.990328,54.179728 C895.990328,54.7296566 895.546284,55.1763899 894.996365,55.1797098 L887.515593,55.2248719 C886.683592,55.2298948 886.00505,54.5594966 886.000027,53.7274955 C886.000009,53.724464 886,53.7214324 886,53.7184008 C886,52.8798704 886.677078,52.1986923 887.515593,52.1936301 L892.961388,52.1607532 Z" id="Combined-Shape" transform="translate(891.000000, 48.112450) rotate(-315.000000) translate(-891.000000, -48.112450) "></path>
                    </g>
                </g>
            </g>
        </g>
    </g>
</svg>