<svg xmlns="http://www.w3.org/2000/svg" width="106" height="168" viewBox="0 0 106 168">
    <g fill="none" fill-rule="evenodd" stroke="#000" stroke-linecap="round" stroke-linejoin="round" stroke-width="2">
        <path stroke-dasharray="9" d="M104.647 166.107c-20.242-.211-40.634-6.323-58.468-18.81C-.871 114.35-12.306 49.501 20.639 2.452"/>
        <path d="M5.928 8.215l15.497-6.81 1.839 16.784"/>
    </g>
</svg>
