<?xml version="1.0" encoding="UTF-8"?>
<svg width="231px" height="28px" viewBox="0 0 231 28" version="1.1" xmlns="http://www.w3.org/2000/svg" xmlns:xlink="http://www.w3.org/1999/xlink">
    <!-- Generator: Sketch 50 (54983) - http://www.bohemiancoding.com/sketch -->
    <title>Logo CALF</title>
    <desc>Created with Sketch.</desc>
    <defs>
        <polygon id="path-1" points="0.271140625 0.136733333 8.04114063 0.136733333 8.04114063 9.625 0.271140625 9.625"></polygon>
        <polygon id="path-3" points="0 28 231 28 231 0 0 0"></polygon>
    </defs>
    <g id="005_Prospection_Desktop_1440x1024" stroke="none" stroke-width="1" fill="none" fill-rule="evenodd">
        <g id="Desktop-1440x1024---Prospection" transform="translate(-30.000000, -26.000000)">
            <g id="Header">
                <g id="Logo-CALF" transform="translate(30.000000, 26.000000)">
                    <g id="Group-3" transform="translate(123.375000, 18.375000)">
                        <mask id="mask-2" fill="white">
                            <use xlink:href="#path-1"></use>
                        </mask>
                        <g id="Clip-2"></g>
                        <path d="M4.84410938,2.46306667 L4.84410938,2.4374 C4.84410938,1.82256667 4.43504688,1.4049 3.85317187,1.4049 C3.23301563,1.4049 2.82395313,1.86106667 2.82395313,2.50273333 L2.82395313,2.5284 C2.82395313,2.98573333 2.99785937,3.3264 3.48129688,3.88756667 C4.37270313,3.54806667 4.84410938,3.1164 4.84410938,2.46306667 Z M4.89442188,7.4424 L2.96067188,5.3634 C2.15567188,5.72973333 1.80785938,6.29206667 1.80785938,6.88006667 L1.80785938,6.9069 C1.80785938,7.67806667 2.41489062,8.23923333 3.25707813,8.23923333 C3.85317187,8.23923333 4.39785938,7.93823333 4.89442188,7.4424 Z M5.76176563,8.3839 C5.01801563,9.1154 4.15067188,9.57273333 3.09739063,9.57273333 C1.48629688,9.57273333 0.271140625,8.54023333 0.271140625,6.95823333 L0.271140625,6.93256667 C0.271140625,5.75656667 0.928484375,4.90723333 2.11739063,4.37056667 C1.62192188,3.70323333 1.39879687,3.12806667 1.39879687,2.46306667 L1.39879687,2.4374 C1.39879687,1.2089 2.34051563,0.136733333 3.89035938,0.136733333 C5.26520313,0.136733333 6.19489063,1.11673333 6.19489063,2.34406667 L6.19489063,2.37206667 C6.19489063,3.57373333 5.43910938,4.29123333 4.28629688,4.7509 L5.77379688,6.34456667 C6.10848438,5.8219 6.41692188,5.22106667 6.70239063,4.5794 L7.85520313,5.22106667 C7.50848438,5.95256667 7.12457813,6.67006667 6.67832813,7.31173333 L8.04114063,8.7759 L6.91457813,9.62523333 L5.76176563,8.3839 Z" id="Fill-1" fill="#71787D" mask="url(#mask-2)"></path>
                    </g>
                    <path d="M26.25,18.1768547 L30.767048,15.75 L34.125,22.7495849 L29.1294261,22.7495849 C29.1294261,22.7531416 28.1688297,22.7531416 27.7848275,21.8853069 C27.4256377,20.9226268 26.2582708,18.1780403 26.25,18.1768547" id="Fill-4" fill="#71787D"></path>
                    <mask id="mask-4" fill="white">
                        <use xlink:href="#path-3"></use>
                    </mask>
                    <g id="Clip-7"></g>
                    <polygon id="Fill-6" fill="#71787D" mask="url(#mask-4)" points="0 28 35 28 35 24.5 0 24.5"></polygon>
                    <path d="M37.625,4.28932527 C37.6180656,4.28825394 32.0346872,7.26226284 30.7263899,7.71436362 C29.5232649,8.15467978 29.0713707,7.57187688 28.928059,7.36939573 C28.6056076,6.91193831 28.0751231,5.40350728 28,5.17638556 C28.0323607,5.18281354 28.3409432,5.23852264 29.0551903,5.07032401 C29.9058147,4.87105684 37.6180656,0.873928886 37.625,0.875 L37.625,4.28932527 Z" id="Fill-8" fill="#007556" mask="url(#mask-4)"></path>
                    <path d="M28.8989219,10.7683637 L25.3189635,3.01814347 L20.1108288,3.01814347 L12.7953107,16.3508133 C12.8009484,16.3541179 16.3944373,16.2439669 18.6980137,14.5476424 C19.280955,14.2138851 20.9215343,10.0017131 22.4256806,7.1675294 L24.7653384,12.8920738 C21.2293544,14.6610979 17.8692674,16.2120231 16.0606837,16.7121084 C11.2877817,18.0559499 5.47528235,18.8611533 3.38706725,17.0546778 C1.42288221,15.3517443 5.95787201,8.21947089 14.5362416,6.63329734 C15.9265058,6.33038225 16.7383388,6.40748791 16.7383388,6.41629999 C16.7383388,6.40748791 16.1508874,3.97755816 15.6931037,3.46535629 C15.0537852,2.70090876 14.4268696,2.54339291 13.492134,2.6590514 C11.6350659,2.76810083 3.73660649,4.82461889 0.620069489,11.2530278 C-1.11747882,14.9067345 1.19399038,18.594588 2.68911631,19.6641536 C3.38481216,20.1587313 7.87018994,24.0889169 18.2413576,20.116874 C28.4625616,16.2439669 37.6182347,10.1438078 37.625,10.1438078 L37.625,6.06161396 C37.6204898,6.05720792 33.5850029,8.3153022 28.8989219,10.7683637" id="Fill-9" fill="#71787D" mask="url(#mask-4)"></path>
                    <polygon id="Fill-10" fill="#71787D" mask="url(#mask-4)" points="48.125 18.375 50.1095468 18.375 50.1095468 25.7256249 56 25.7256249 56 27.125 48.125 27.125"></polygon>
                    <path d="M56.875,24.5996525 L56.875,18.375 L64.5802292,18.375 L64.5802292,19.7743751 L58.6973496,19.7743751 L58.6973496,21.8868288 L64.0934814,21.8868288 L64.0934814,23.2493783 L58.6973496,23.2493783 L58.6973496,24.5996525 C58.6973496,25.361832 59.0497851,25.724509 59.7675501,25.724509 L64.75,25.724509 L64.75,27.125 L59.3291547,27.125 C57.7743553,27.125 56.875,26.1876196 56.875,24.5996525" id="Fill-11" fill="#71787D" mask="url(#mask-4)"></path>
                    <path d="M73.8499296,23.6499968 L72.0639333,20.1761096 L70.2790812,23.6499968 L73.8499296,23.6499968 Z M74.5615822,25.0136622 L69.5662844,25.0136622 L68.4804994,27.125 L66.5,27.125 L71.1978224,18.375 L73.1771776,18.375 L77.875,27.125 L75.6496555,27.125 L74.5615822,25.0136622 Z" id="Fill-12" fill="#71787D" mask="url(#mask-4)"></path>
                    <path d="M78.75,25.7826643 L79.6499261,24.5622611 C80.8217642,25.3726261 82.4168292,25.7470557 83.7934545,25.7470557 C85.2224143,25.7470557 86.3931147,25.348887 86.3931147,24.7198021 C86.3931147,24.066978 85.0938534,23.8134018 83.601182,23.5112683 C81.5419326,23.1001511 79.0970006,22.6156585 79.0970006,20.9237113 C79.0970006,19.3526175 81.1824173,18.375 83.5625,18.375 C85.196247,18.375 86.9073582,18.8087773 88.1429078,19.5954033 L87.241844,20.8147275 C86.2258717,20.0906863 84.8617612,19.7281262 83.601182,19.7281262 C82.3132979,19.7281262 81.0788859,20.1014768 81.0788859,20.7068227 C81.0788859,21.2744019 82.2621011,21.5042391 83.6774084,21.7696849 C85.7753398,22.1689327 88.375,22.6642157 88.375,24.5018344 C88.375,26.1700425 86.2383865,27.125 83.8196217,27.125 C81.9537825,27.125 80.0754285,26.6059779 78.75,25.7826643" id="Fill-13" fill="#71787D" mask="url(#mask-4)"></path>
                    <polygon id="Fill-14" fill="#71787D" mask="url(#mask-4)" points="90.125 27.125 91.875 27.125 91.875 18.375 90.125 18.375"></polygon>
                    <polygon id="Fill-15" fill="#71787D" mask="url(#mask-4)" points="97.3548666 20.8885471 97.3548666 27.125 95.375 27.125 95.375 18.375 97.3548666 18.375 103.018966 24.5991808 103.018966 18.375 105 18.375 105 27.125 103.018966 27.125"></polygon>
                    <path d="M112.589447,18.375 C114.018871,18.375 115.502146,18.7741985 116.720844,19.5715166 L115.79365,20.6709309 C114.800898,20.0430025 113.966189,19.693434 112.708858,19.693434 C110.524334,19.693434 108.816284,20.9136868 108.816284,22.7262639 C108.816284,24.5140259 110.338193,25.8087238 112.643299,25.8087238 C113.661807,25.8087238 114.601879,25.5540999 115.263324,25.1549014 L115.263324,23.5354501 L112.470036,23.5354501 L112.470036,22.24291 L117.25,22.24291 L117.25,25.7957768 C116.137836,26.5208076 114.562075,27.125 112.562521,27.125 C109.067984,27.125 106.75,25.2390567 106.75,22.7381319 C106.75,19.9707152 109.583092,18.375 112.589447,18.375" id="Fill-16" fill="#71787D" mask="url(#mask-4)"></path>
                    <polygon id="Fill-17" fill="#71787D" mask="url(#mask-4)" points="138.25 18.375 146.125 18.375 146.125 19.775491 140.112762 19.775491 140.112762 22.5128651 145.380335 22.5128651 145.380335 23.8754145 140.112762 23.8754145 140.112762 27.125 138.25 27.125"></polygon>
                    <path d="M154.351074,23.6499968 L152.563933,20.1761096 L150.779081,23.6499968 L154.351074,23.6499968 Z M155.062726,25.0136622 L150.067429,25.0136622 L148.980499,27.125 L147,27.125 L151.697822,18.375 L153.678322,18.375 L158.375,27.125 L156.148511,27.125 L155.062726,25.0136622 Z" id="Fill-18" fill="#71787D" mask="url(#mask-4)"></path>
                    <path d="M163.916263,18.375 C165.272694,18.375 166.680229,18.7741985 167.836695,19.5715166 L166.956847,20.6709309 C166.014788,20.0430025 165.222703,19.693434 164.029576,19.693434 C161.956602,19.693434 160.335772,20.9374229 160.335772,22.7510789 C160.335772,24.5625771 161.956602,25.8087238 164.029576,25.8087238 C165.284915,25.8087238 166.114771,25.4332614 167.120152,24.7805179 L168,25.8799322 C166.819093,26.6901973 165.336017,27.125 163.916263,27.125 C161.064534,27.125 158.375,25.5055487 158.375,22.7381319 C158.375,19.9707152 161.064534,18.375 163.916263,18.375" id="Fill-19" fill="#71787D" mask="url(#mask-4)"></path>
                    <polygon id="Fill-20" fill="#71787D" mask="url(#mask-4)" points="168.875 19.7751339 168.875 18.375 177.625 18.375 177.625 19.7751339 174.204167 19.7751339 174.204167 27.125 172.295833 27.125 172.295833 19.7751339"></polygon>
                    <path d="M180.502345,22.7505394 C180.502345,24.453936 182.005239,25.8078073 184.186932,25.8078073 C186.369761,25.8078073 187.87152,24.453936 187.87152,22.7505394 C187.87152,21.046064 186.369761,19.6932715 184.186932,19.6932715 C182.005239,19.6932715 180.502345,21.046064 180.502345,22.7505394 M178.5,22.7505394 C178.5,20.3567224 180.861042,18.375 184.186932,18.375 C187.512823,18.375 189.875,20.3567224 189.875,22.7505394 C189.875,25.1432776 187.512823,27.125 184.186932,27.125 C180.861042,27.125 178.5,25.1432776 178.5,22.7505394" id="Fill-21" fill="#71787D" mask="url(#mask-4)"></path>
                    <path d="M197.420075,22.7126164 C198.836281,22.7126164 199.74653,22.1624633 199.74653,21.2128077 C199.74653,20.2865865 198.876474,19.7743751 197.404707,19.7743751 L194.504913,19.7743751 L194.504913,22.7126164 L197.420075,22.7126164 Z M192.5,18.375 L197.566661,18.375 C199.919123,18.375 201.830647,19.2621636 201.830647,21.1871413 C201.830647,22.6880659 200.654415,23.4759119 199.064434,23.8129225 L202.125,27.125 L199.786723,27.125 L197.003961,24.0751658 L194.504913,24.0751658 L194.504913,27.125 L192.5,27.125 L192.5,18.375 Z" id="Fill-22" fill="#71787D" mask="url(#mask-4)"></path>
                    <polygon id="Fill-23" fill="#71787D" mask="url(#mask-4)" points="203.875 27.125 205.625 27.125 205.625 18.375 203.875 18.375"></polygon>
                    <polygon id="Fill-24" fill="#71787D" mask="url(#mask-4)" points="211.104867 20.8885471 211.104867 27.125 209.125 27.125 209.125 18.375 211.104867 18.375 216.770133 24.5991808 216.770133 18.375 218.75 18.375 218.75 27.125 216.770133 27.125"></polygon>
                    <path d="M226.338927,18.375 C227.769681,18.375 229.251951,18.7741985 230.470785,19.5715166 L229.543488,20.6709309 C228.551795,20.0430025 227.715823,19.693434 226.459523,19.693434 C224.272413,19.693434 222.564173,20.9136868 222.564173,22.7262639 C222.564173,24.5140259 224.087422,25.8087238 226.391615,25.8087238 C227.411407,25.8087238 228.352754,25.5540999 229.013102,25.1549014 L229.013102,23.5354501 L226.219503,23.5354501 L226.219503,22.24291 L231,22.24291 L231,25.7957768 C229.887712,26.5208076 228.312946,27.125 226.313169,27.125 C222.815901,27.125 220.5,25.2390567 220.5,22.7381319 C220.5,19.9707152 223.333408,18.375 226.338927,18.375" id="Fill-25" fill="#71787D" mask="url(#mask-4)"></path>
                    <path d="M54.8066069,3.5 C56.6577025,3.5 58.5761952,4.05867631 60.1530544,5.17602892 L58.9526892,6.71465981 C57.6674967,5.83576659 56.5891434,5.34408602 54.9611554,5.34408602 C52.1328021,5.34408602 49.9238048,7.08711068 49.9238048,9.62613552 C49.9238048,12.1628893 52.1328021,13.9047785 54.9611554,13.9047785 C56.6739708,13.9047785 57.8046149,13.3801678 59.1757968,12.4672089 L60.375,14.0069753 C58.7644422,15.1402253 56.7425299,15.75 54.8066069,15.75 C50.9173307,15.75 47.25,13.4823647 47.25,9.60796719 C47.25,5.73356971 50.9173307,3.5 54.8066069,3.5" id="Fill-26" fill="#007556" mask="url(#mask-4)"></path>
                    <path d="M68.3867265,9.13897277 C70.1901314,9.13897277 71.3474028,8.42360512 71.3474028,7.18915972 C71.3474028,5.9852483 70.240899,5.32004362 68.3694193,5.32004362 L64.6772276,5.32004362 L64.6772276,9.13897277 L68.3867265,9.13897277 Z M62.125,3.5 L68.5736437,3.5 C71.5677804,3.5 74.0011656,4.65374844 74.0011656,7.15644473 C74.0011656,9.10625779 72.5035203,10.1291463 70.4797377,10.5686176 L74.375,14.875 L71.3981704,14.875 L67.8594353,10.9099439 L64.6772276,10.9099439 L64.6772276,14.875 L62.125,14.875 L62.125,3.5 Z" id="Fill-27" fill="#007556" mask="url(#mask-4)"></path>
                    <path d="M83.9513736,0 L82.0711538,2.03324944 L79.9975275,2.03324944 L81.4239011,0 L83.9513736,0 Z M76.125,11.5350578 L76.125,3.30444631 L86.3986264,3.30444631 L86.3986264,5.15577927 L78.5557692,5.15577927 L78.5557692,7.94997204 L85.7502747,7.94997204 L85.7502747,9.75138889 L78.5557692,9.75138889 L78.5557692,11.5350578 C78.5557692,12.5444724 79.025,13.0225578 79.9821429,13.0225578 L86.625,13.0225578 L86.625,14.875 L79.3986264,14.875 C77.3239011,14.875 76.125,13.634862 76.125,11.5350578 Z" id="Fill-28" fill="#007556" mask="url(#mask-4)"></path>
                    <path d="M95.7108234,13.0549564 C98.624004,13.0549564 100.577357,11.5108091 100.577357,9.20440274 C100.577357,6.88054837 98.624004,5.32004362 95.7108234,5.32004362 L92.6953851,5.32004362 L92.6953851,13.0549564 L95.7108234,13.0549564 Z M90.125,3.5 L95.5400066,3.5 C100.166003,3.5 103.25,5.7747819 103.25,9.18695475 C103.25,12.6002181 100.166003,14.875 95.5400066,14.875 L90.125,14.875 L90.125,3.5 Z" id="Fill-29" fill="#007556" mask="url(#mask-4)"></path>
                    <polygon id="Fill-30" fill="#007556" mask="url(#mask-4)" points="105.875 14.875 108.5 14.875 108.5 3.5 105.875 3.5"></polygon>
                    <polygon id="Fill-31" fill="#007556" mask="url(#mask-4)" points="110.25 5.32004362 110.25 3.5 121.625 3.5 121.625 5.32004362 117.177033 5.32004362 117.177033 14.875 114.696846 14.875 114.696846 5.32004362"></polygon>
                    <path d="M136.487916,10.3577181 L134.1524,5.83934564 L131.818031,10.3577181 L136.487916,10.3577181 Z M137.419827,12.1288591 L130.88612,12.1288591 L129.464152,14.875 L126.875,14.875 L133.018498,3.5 L135.60765,3.5 L141.75,14.875 L138.840647,14.875 L137.419827,12.1288591 Z" id="Fill-32" fill="#007556" mask="url(#mask-4)"></path>
                    <path d="M149.049399,3.5 C150.836366,3.5 152.69068,4.05867631 154.213867,5.17602892 L153.053237,6.71465981 C151.812912,5.83576659 150.769018,5.34408602 149.198687,5.34408602 C146.465481,5.34408602 144.331673,7.05304505 144.331673,9.59093437 C144.331673,12.0947581 146.234253,13.9047785 149.115625,13.9047785 C150.388502,13.9047785 151.563724,13.5504959 152.393227,12.9918196 L152.393227,10.7241843 L148.898989,10.7241843 L148.898989,8.91529941 L154.875,8.91529941 L154.875,13.8877456 C153.483142,14.9029014 151.514335,15.75 149.015725,15.75 C144.644841,15.75 141.75,13.1099138 141.75,9.60796719 C141.75,5.73356971 145.291382,3.5 149.049399,3.5" id="Fill-33" fill="#007556" mask="url(#mask-4)"></path>
                    <path d="M164.635573,9.13897277 C166.438978,9.13897277 167.596249,8.42360512 167.596249,7.18915972 C167.596249,5.9852483 166.489745,5.32004362 164.618266,5.32004362 L160.927228,5.32004362 L160.927228,9.13897277 L164.635573,9.13897277 Z M158.375,3.5 L164.82249,3.5 C167.816627,3.5 170.250012,4.65374844 170.250012,7.15644473 C170.250012,9.10625779 168.752366,10.1291463 166.728584,10.5686176 L170.625,14.875 L167.647017,14.875 L164.108282,10.9099439 L160.927228,10.9099439 L160.927228,14.875 L158.375,14.875 L158.375,3.5 Z" id="Fill-34" fill="#007556" mask="url(#mask-4)"></path>
                    <polygon id="Fill-35" fill="#007556" mask="url(#mask-4)" points="173.25 14.875 175.875 14.875 175.875 3.5 173.25 3.5"></polygon>
                    <path d="M186.056607,3.5 C187.906541,3.5 189.826195,4.05867631 191.404216,5.17602892 L190.202689,6.71465981 C188.917497,5.83576659 187.837981,5.34408602 186.209993,5.34408602 C183.382802,5.34408602 181.172643,7.08711068 181.172643,9.62613552 C181.172643,12.1628893 183.382802,13.9047785 186.209993,13.9047785 C187.923971,13.9047785 189.054615,13.3801678 190.425797,12.4672089 L191.625,14.0069753 C190.014442,15.1402253 187.99253,15.75 186.056607,15.75 C182.167331,15.75 178.5,13.4823647 178.5,9.60796719 C178.5,5.73356971 182.167331,3.5 186.056607,3.5" id="Fill-36" fill="#007556" mask="url(#mask-4)"></path>
                    <path d="M194.243638,9.62443229 C194.243638,12.0110761 196.208754,13.9060849 199.060792,13.9060849 C201.916246,13.9060849 203.881362,12.0110761 203.881362,9.62443229 C203.881362,7.2389239 201.916246,5.3439151 199.060792,5.3439151 C196.208754,5.3439151 194.243638,7.2389239 194.243638,9.62443229 M191.625,9.62443229 C191.625,6.27609139 194.713854,3.5 199.060792,3.5 C203.411146,3.5 206.5,6.27609139 206.5,9.62443229 C206.5,12.9739086 203.411146,15.75 199.060792,15.75 C194.713854,15.75 191.625,12.9739086 191.625,9.62443229" id="Fill-37" fill="#007556" mask="url(#mask-4)"></path>
                    <polygon id="Fill-38" fill="#007556" mask="url(#mask-4)" points="209.125 3.5 211.551544 3.5 211.551544 13.0547819 218.75 13.0547819 218.75 14.875 209.125 14.875"></polygon>
                    <path d="M220.5,11.5915061 L220.5,3.5 L230.77365,3.5 L230.77365,5.32004362 L222.930515,5.32004362 L222.930515,8.06701179 L230.124267,8.06701179 L230.124267,9.83798294 L222.930515,9.83798294 L222.930515,11.5915061 C222.930515,12.5827701 223.400795,13.0549564 224.356739,13.0549564 L231,13.0549564 L231,14.875 L223.773284,14.875 C221.698776,14.875 220.5,13.6558216 220.5,11.5915061" id="Fill-39" fill="#007556" mask="url(#mask-4)"></path>
                </g>
            </g>
        </g>
    </g>
</svg>