<?xml version="1.0" encoding="UTF-8"?>
<svg width="116px" height="116px" viewBox="0 0 116 116" version="1.1" xmlns="http://www.w3.org/2000/svg" xmlns:xlink="http://www.w3.org/1999/xlink">
    <!-- Generator: Sketch 50.2 (55047) - http://www.bohemiancoding.com/sketch -->
    <title>Check</title>
    <desc>Created with Sketch.</desc>
    <defs></defs>
    <g id="002_Oubli_MDP_Desktop_1440" stroke="none" stroke-width="1" fill="none" fill-rule="evenodd">
        <g id="002_06_Oubli_MDP_Desktop_1440---Reinitialisation-OK" transform="translate(-662.000000, -375.000000)">
            <g id="Réinitialisation-MDP-OK" transform="translate(518.000000, 325.000000)">
                <g id="Check" transform="translate(145.000000, 51.000000)">
                    <circle id="Oval" stroke="#009F61" stroke-width="2" fill-rule="nonzero" cx="56.6019417" cy="56.6019417" r="56.6019417"></circle>
                    <g id="OK" transform="translate(32.000000, 45.000000)">
                        <path d="M1,12 C14.2811877,25.34286 21.1861979,32.2590575 21.7150304,32.7485926 C22.243863,33.2381277 22.7832973,33.2381277 23.3333333,32.7485926 L54.9440308,1" id="Path-2" stroke="#009F61" stroke-width="2"></path>
                        <circle id="Oval-2" fill="#009F61" cx="1" cy="12" r="1"></circle>
                        <circle id="Oval-2-Copy" fill="#009F61" cx="54.8888889" cy="1" r="1"></circle>
                    </g>
                </g>
            </g>
        </g>
    </g>
</svg>