<?xml version="1.0" encoding="UTF-8"?>
<svg width="170px" height="150px" viewBox="0 0 186 150" version="1.1" xmlns="http://www.w3.org/2000/svg" xmlns:xlink="http://www.w3.org/1999/xlink">
    <!-- Generator: sketchtool 50.2 (55047) - http://www.bohemiancoding.com/sketch -->
    <title>C942771D-8C9F-45FA-A002-A353CFCE99BB</title>
    <desc>Created with sketchtool.</desc>
    <defs>
        <linearGradient x1="50%" y1="133.187374%" x2="50%" y2="3.061617e-15%" id="linearGradient-1">
            <stop stop-color="#62C9F5" offset="0%"></stop>
            <stop stop-color="#198FD0" offset="100%"></stop>
        </linearGradient>
        <polygon id="path-2" points="0 0 186 0 186 150 0 150"></polygon>
    </defs>
    <g id="006_Prospection_Desktop_1440" stroke="none" stroke-width="1" fill="none" fill-rule="evenodd">
        <g id="006_01_Prospection_Desktop_1440" transform="translate(-829.000000, -386.000000)">
            <g id="Tableau-de-bord-Entreprise" transform="translate(250.000000, 251.000000)">
                <g id="Chiffres-clefs---CA,-effectif,-…" transform="translate(393.000000, 60.000000)">
                    <g id="Effectif" transform="translate(186.000000, 75.000000)">
                        <g id="Picto-effectif">
                            <mask id="mask-3" fill="white">
                                <use xlink:href="#path-2"></use>
                            </mask>
                            <use id="Mask" fill="url(#linearGradient-1)" xlink:href="#path-2"></use>
                            <path d="M1.78471959,76.8004149 C9.95047019,76.8004149 16.5704206,83.4203654 16.5704206,91.586116 L16.5704206,94.547182 C16.5704206,95.8005069 15.5536277,96.8182814 14.2993213,96.8182814 L-10.7269377,96.8182814 C-11.9822256,96.8182814 -13,95.7995255 -13,94.5442376 L-13,91.586116 C-13,83.4203654 -6.38004955,76.8004149 1.78471959,76.8004149 Z M1.76901622,53 C7.29660124,53 11.776968,57.4803668 11.776968,63.0089332 C11.776968,68.5365183 7.29660124,73.0178665 1.76901622,73.0178665 C-3.75955026,73.0178665 -8.23991702,68.5365183 -8.23991702,63.0089332 C-8.23991702,57.4803668 -3.75955026,53 1.76901622,53 Z" id="Combined-Shape" fill="#62C9F5" mask="url(#mask-3)"></path>
                        </g>
                    </g>
                </g>
            </g>
        </g>
    </g>
</svg>
