<?xml version="1.0" encoding="UTF-8"?>
<svg width="17px" height="22px" viewBox="0 0 17 22" version="1.1" xmlns="http://www.w3.org/2000/svg" xmlns:xlink="http://www.w3.org/1999/xlink">
    <!-- Generator: sketchtool 50.2 (55047) - http://www.bohemiancoding.com/sketch -->
    <title>FC594EC3-893C-450C-AB6D-4470F5914E45</title>
    <desc>Created with sketchtool.</desc>
    <defs></defs>
    <g id="006_Prospection_Desktop_1440" stroke="none" stroke-width="1" fill="none" fill-rule="evenodd">
        <g id="006_01_Prospection_Desktop_1440---No-photos-dirigeants" transform="translate(-249.000000, -186.000000)">
            <g id="Header-entreprise" transform="translate(0.000000, 119.000000)">
                <g id="Blacklist-OFAC" transform="translate(249.000000, 68.000000)">
                    <g id="Picto-Black-List">
                        <path d="M13.4757637,14.0700164 C13.4757637,17.8656183 10.4592465,20.94267 6.73804559,20.94267 C3.01662643,20.94267 0.000109151732,17.8656183 0.000109151732,14.0700164 C0.000109151732,10.2744144 3.01662643,7.19736275 6.73804559,7.19736275 C10.4592465,7.19736275 13.4757637,10.2744144 13.4757637,14.0700164 Z" id="Stroke-1" fill="#909090"></path>
                        <path d="M6.79384396,7.08150849 C6.79384396,4.97551277 8.46757662,3.26831578 10.5322908,3.26831578" id="Stroke-3" stroke="#909090" stroke-width="2" stroke-linecap="round" stroke-linejoin="round"></path>
                        <path d="M11.7066247,1.29900167 L12.9802071,-4.45336375e-05" id="Stroke-5" stroke="#909090" stroke-width="2" stroke-linecap="round" stroke-linejoin="round"></path>
                        <path d="M12.9801853,6.56450962 L11.7066029,5.26546341" id="Stroke-7" stroke="#909090" stroke-width="2" stroke-linecap="round" stroke-linejoin="round"></path>
                        <path d="M13.4646585,3.2961493 L15.2656621,3.2961493" id="Stroke-9" stroke="#909090" stroke-width="2" stroke-linecap="round" stroke-linejoin="round"></path>
                    </g>
                </g>
            </g>
        </g>
    </g>
</svg>