<?xml version="1.0" encoding="UTF-8"?>
<svg width="28px" height="32px" viewBox="0 0 28 32" version="1.1" xmlns="http://www.w3.org/2000/svg" xmlns:xlink="http://www.w3.org/1999/xlink">
    <!-- Generator: sketchtool 50.2 (55047) - http://www.bohemiancoding.com/sketch -->
    <title>615DC297-4637-4FED-AD17-C8DC52819C6A</title>
    <desc>Created with sketchtool.</desc>
    <defs></defs>
    <g id="006_Prospection_Desktop_1440" stroke="none" stroke-width="1" fill="none" fill-rule="evenodd">
        <g id="006_01_Prospection_Desktop_1440---Ajout-Portefeuille-Favoris" transform="translate(-906.000000, -1402.000000)">
            <g id="Tableau-de-bord-Entreprise" transform="translate(250.000000, 251.000000)">
                <g id="Événements-juridiques" transform="translate(0.000000, 1019.000000)">
                    <g id="Fichiers-à-télécharger" transform="translate(657.000000, 133.000000)">
                        <g id="Picto-Doc-PDF">
                            <path d="M22.3448276,6.20689655 L22.3448276,27.8068966 C22.3448276,28.6758621 21.662069,29.3586207 20.7931034,29.3586207 L1.55172414,29.3586207 C0.682758621,29.3586207 0,28.6758621 0,27.8068966 L0,1.55172414 C0,0.682758621 0.682758621,0 1.55172414,0 L16.137931,0 L22.3448276,6.20689655 Z" id="Stroke-1" stroke="#009F61" stroke-width="2" stroke-linecap="round" stroke-linejoin="round"></path>
                            <path d="M22.3448276,6.20689655 L17.6896552,6.20689655 C16.8206897,6.20689655 16.137931,5.52413793 16.137931,4.65517241 L16.137931,0" id="Stroke-3" stroke="#009F61" stroke-width="2" stroke-linecap="round" stroke-linejoin="round"></path>
                            <path d="M24.6661763,25.9246116 L7.9171884,25.9246116 C6.726905,25.9246116 5.79168233,24.9680899 5.79168233,23.7506986 L5.79168233,16.0985247 C5.79168233,14.8811334 6.726905,13.9246116 7.9171884,13.9246116 L24.6661763,13.9246116 C25.8564597,13.9246116 26.7916823,14.8811334 26.7916823,16.0985247 L26.7916823,23.7506986 C26.7916823,24.9246116 25.8564597,25.9246116 24.6661763,25.9246116" id="Fill-5" fill="#009F61"></path>
                            <path d="M9.8883194,19.6853448 L11.0404746,19.6853448 C11.3818539,19.6853448 11.6378884,19.6 11.808578,19.4293103 C11.9792677,19.2586207 12.0646125,19.0452586 12.0646125,18.7465517 C12.0646125,18.4478448 11.9792677,18.1918103 11.808578,18.0211207 C11.6378884,17.850431 11.3818539,17.7224138 11.0404746,17.7224138 L9.84564698,17.7224138 L9.84564698,19.6853448 L9.8883194,19.6853448 Z M9.8883194,20.7094828 L9.8883194,22.9284483 L8.60814698,22.9284483 L8.60814698,16.6556034 L11.0404746,16.6556034 C11.5098711,16.6556034 11.9365953,16.7409483 12.2779746,16.9116379 C12.6193539,17.0823276 12.9180608,17.3383621 13.0887504,17.637069 C13.2594401,17.9357759 13.3874573,18.3198276 13.3874573,18.7038793 C13.3874573,19.3012931 13.1740953,19.8133621 12.7473711,20.1547414 C12.320647,20.4961207 11.7232332,20.6668103 10.9978022,20.6668103 L9.8883194,20.6668103 L9.8883194,20.7094828 Z" id="Fill-7" fill="#F1F1F1"></path>
                            <path d="M15.5636651,17.679656 L15.5636651,21.8615526 L16.2037513,21.8615526 C16.7158203,21.8615526 17.099872,21.6908629 17.3559065,21.3494836 C17.6119409,21.0081043 17.7399582,20.5387078 17.7826306,19.941294 L17.7826306,19.5999147 C17.7826306,18.9598284 17.6546134,18.4904319 17.3985789,18.1490526 C17.1425444,17.8076733 16.7584927,17.6369836 16.2464237,17.6369836 L15.5636651,17.6369836 L15.5636651,17.679656 Z M14.2834927,22.9283629 L14.2834927,16.6555181 L16.2037513,16.6555181 C16.7584927,16.6555181 17.2705616,16.7835353 17.6972858,17.0395698 C18.1240099,17.2956043 18.4653892,17.6369836 18.7214237,18.1063802 C18.9774582,18.5757767 19.1054754,19.0878457 19.1054754,19.6852595 L19.1054754,19.9839664 C19.1054754,20.5813802 18.9774582,21.0934491 18.7640961,21.5628457 C18.5507341,22.0322422 18.1666823,22.3736216 17.7399582,22.629656 C17.3132341,22.8856905 16.8011651,23.0137078 16.2464237,23.0137078 L14.2834927,23.0137078 L14.2834927,22.9283629 Z" id="Fill-9" fill="#F1F1F1"></path>
                            <polygon id="Fill-11" fill="#F1F1F1" points="23.799569 20.3681461 21.324569 20.3681461 21.324569 22.9284909 20.0443966 22.9284909 20.0443966 16.6556461 24.1409483 16.6556461 24.1409483 17.7224565 21.324569 17.7224565 21.324569 19.3440082 23.799569 19.3440082"></polygon>
                        </g>
                    </g>
                </g>
            </g>
        </g>
    </g>
</svg>