<?xml version="1.0" encoding="UTF-8"?>
<svg width="20px" height="20px" viewBox="0 0 20 20" version="1.1" xmlns="http://www.w3.org/2000/svg" xmlns:xlink="http://www.w3.org/1999/xlink">
    <!-- Generator: Sketch 50.2 (55047) - http://www.bohemiancoding.com/sketch -->
    <title>Picto siège</title>
    <desc>Created with Sketch.</desc>
    <defs></defs>
    <g id="005_Resultats_Recherche_Desktop_1440" stroke="none" stroke-width="1" fill="none" fill-rule="evenodd">
        <g id="005_02_Resultats_Recherche_Desktop_1440---Ajout-Portefeuille-/-Favoris" transform="translate(-996.000000, -481.000000)" fill="#909090">
            <g id="Group" transform="translate(100.000000, 371.000000)">
                <g id="Résultats-de-recherche-entreprise" transform="translate(208.000000, 0.000000)">
                    <g id="Ligne-1" transform="translate(2.000000, 87.000000)">
                        <g id="Picto-siège" transform="translate(686.000000, 23.000000)">
                            <path d="M19.6283061,9.42681818 L10.4360983,0.234350649 C10.1236308,-0.0781168831 9.61687757,-0.0781168831 9.30441004,0.234350649 L0.111942506,9.42681818 C-0.127278273,9.66603896 0.0423321162,10.0751299 0.380513934,10.0751299 L2.13194251,10.0751299 C2.3415529,10.0751299 2.51194251,10.245 2.51194251,10.4548701 L2.51194251,19.1878571 C2.51194251,19.5548701 2.8093451,19.8525325 3.17635809,19.8525325 L7.25116329,19.8525325 C7.61220225,19.8525325 7.90518926,19.5595455 7.90518926,19.197987 L7.90518926,13.9842208 C7.90518926,13.4398052 8.34648796,12.9985065 8.89116329,12.9985065 L10.8493451,12.9985065 C11.3937607,12.9985065 11.8350594,13.4398052 11.8350594,13.9842208 L11.8350594,19.197987 C11.8350594,19.5595455 12.1280464,19.8525325 12.4896048,19.8525325 L16.5641503,19.8525325 C16.9311633,19.8525325 17.2288256,19.5548701 17.2288256,19.1878571 L17.2288256,10.4548701 C17.2288256,10.245 17.3986958,10.0751299 17.6085659,10.0751299 L19.3599945,10.0751299 C19.6981763,10.0751299 19.8675269,9.66603896 19.6283061,9.42681818 Z" id="Stroke-1"></path>
                        </g>
                    </g>
                </g>
            </g>
        </g>
    </g>
</svg>